QC Taxa Phylo — qc_taxa_phylo • BioMonTools
…
#>  7 Cricotopus      Genus      Tribe              2 Orthocladiini                
#>  8 californica     Species    Genus              2 Calineuria, Pteronarcys      
#>  9 sp. A           Species    Genus              2 Heleniella, Paraphaenocladius
#> 10 californica     Species    Tribe              2 Acroneuriini, Pteronarcyini  
#> 11 californica     Species    Family             2 Perlidae, Pteronarcyidae     
qc_phylo_PacNW$phylo_unique_rank
#> # A tibble: 4 × 5
#>   phylo_name  phylo_level n_phylo_name match_finalid num_phylo_col
#>   <chr>       <fct>              <int> <lgl>                 <int>
#> 1 Polychaeta  SubPhylum              2 FALSE                     2
#> 2 Polychaeta  Class                  2 FALSE                     2
#> 3 Ptilostomis Genus                  2 FALSE                     2
#> 4 Ptilostomis SubGenus               2 FALSE                     2
qc_phylo_PacNW$phylo_as_finalid
#> # A tibble: 354 × 4
#>    phylo_name      phylo_level n_phylo_name match_finalid
#>    <chr>           <fct>              <int> <lgl>        
#>  1 Annelida        Phylum                49 FALSE        
#>  2 Arthropoda      Phylum               595 FALSE        
#>  3 Cnidaria        Phylum                 1 FALSE        
#>  4 Mollusca        Phylum                32 FALSE        
#>  5 Nemertea        Phylum                 1 FALSE        
#>  6 Platyhelminthes Phylum                 3 FALSE        
#>  7 Chelicerata     SubPhylum             45 FALSE        
#>  8 Clitellata      SubPhylum             48 FALSE        
#>  9 Crustacea       SubPhylum             17 FALSE        
#> 10 Hexapoda        SubPhylum            533 FALSE        
#> # ℹ 344 more rows
…
